{
  "_id": "ObjectId(5e7fba09a4b9af197b7b1006)",
  "episode": 0,
  "step": 0,
  "drone_number": 0,
  "qtable": {
    "position: (0, 0)": {
      "east": 1,
      "west": 3,
      "south": 4,
      "north": 5,
      "stay": 6
    },
    "SINR": {
      "user 0": "( -inf, -inf )",
      "user 1": "( -inf, -inf )",
      "user 2": "( -inf, -inf )",
      "user 3": "( -inf, -inf )",
      "user 4": "( -inf, -inf )",
      "user 5": "( -inf, -inf )",
      "user 6": "( -inf, -inf )",
      "user 7": "( -inf, -inf )",
      "user 8": "( -inf, -inf )",
      "user 9": "( -inf, -inf )",
      "user 10": "( -inf, -inf )",
      "user 11": "( -inf, -inf )",
      "user 12": "( -inf, -inf )",
      "user 13": "( -inf, -inf )",
      "user 14": "( -inf, -inf )",
      "user 15": "( -inf, -inf )",
      "user 16": "( -inf, -inf )",
      "user 17": "( -inf, -inf )",
      "user 18": "( -inf, -inf )",
      "user 19": "( -inf, -inf )",
      "user 20": "( -inf, -inf )",
      "user 21": "( -inf, -inf )",
      "user 22": "( -inf, -inf )",
      "user 23": "( -inf, -inf )",
      "user 24": "( -inf, -inf )",
      "user 25": "( -inf, -inf )",
      "user 26": "( -inf, -inf )",
      "user 27": "( -inf, -inf )",
      "user 28": "( -inf, -inf )",
      "user 29": "( -inf, -inf )",
      "user 30": "( -inf, -inf )",
      "user 31": "( -inf, -inf )",
      "user 32": "( -inf, -inf )",
      "user 33": "( -inf, -inf )",
      "user 34": "( -inf, -inf )",
      "user 35": "( -inf, -inf )",
      "user 36": "( -inf, -inf )",
      "user 37": "( -inf, -inf )",
      "user 38": "( -inf, -inf )",
      "user 39": "( -inf, -inf )",
      "user 40": "( -inf, -inf )",
      "user 41": "( -inf, -inf )",
      "user 42": "( -inf, -inf )",
      "user 43": "( -inf, -inf )",
      "user 44": "( -inf, -inf )",
      "user 45": "( -inf, -inf )",
      "user 46": "( -inf, -inf )",
      "user 47": "( -inf, -inf )",
      "user 48": "( -inf, -inf )",
      "user 49": "( -inf, -inf )",
      "user 50": "( -inf, -inf )",
      "user 51": "( -inf, -inf )",
      "user 52": "( -inf, -inf )",
      "user 53": "( -inf, -inf )",
      "user 54": "( -inf, -inf )",
      "user 55": "( -inf, -inf )",
      "user 56": "( -inf, -inf )",
      "user 57": "( -inf, -inf )",
      "user 58": "( -inf, -inf )",
      "user 59": "( -inf, -inf )",
      "user 60": "( -inf, -inf )",
      "user 61": "( -inf, -inf )",
      "user 62": "( -inf, -inf )",
      "user 63": "( -inf, -inf )",
      "user 64": "( -inf, -inf )",
      "user 65": "( -inf, -inf )",
      "user 66": "( -inf, -inf )",
      "user 67": "( -inf, -inf )",
      "user 68": "( -inf, -inf )",
      "user 69": "( -inf, -inf )",
      "user 70": "( -inf, -inf )",
      "user 71": "( -inf, -inf )",
      "user 72": "( -inf, -inf )",
      "user 73": "( -inf, -inf )",
      "user 74": "( -inf, -inf )",
      "user 75": "( -inf, -inf )",
      "user 76": "( -inf, -inf )",
      "user 77": "( -inf, -inf )",
      "user 78": "( -inf, -inf )",
      "user 79": "( -inf, -inf )",
      "user 80": "( -inf, -inf )",
      "user 81": "( -inf, -inf )",
      "user 82": "( -inf, -inf )",
      "user 83": "( -inf, -inf )",
      "user 84": "( -inf, -inf )",
      "user 85": "( -inf, -inf )",
      "user 86": "( -inf, -inf )",
      "user 87": "( -inf, -inf )",
      "user 88": "( -inf, -inf )",
      "user 89": "( -inf, -inf )",
      "user 90": "( -inf, -inf )",
      "user 91": "( -inf, -inf )",
      "user 92": "( -inf, -inf )",
      "user 93": "( -inf, -inf )",
      "user 94": "( -inf, -inf )",
      "user 95": "( -inf, -inf )",
      "user 96": "( -inf, -inf )",
      "user 97": "( -inf, -inf )",
      "user 98": "( -inf, -inf )",
      "user 99": "( -inf, -inf )",
      "user 100": "( -inf, -inf )",
      "user 101": "( -inf, -inf )",
      "user 102": "( -inf, -inf )",
      "user 103": "( -inf, -inf )",
      "user 104": "( -inf, -inf )",
      "user 105": "( -inf, -inf )",
      "user 106": "( -inf, -inf )",
      "user 107": "( -inf, -inf )",
      "user 108": "( -inf, -inf )",
      "user 109": "( -inf, -inf )",
      "user 110": "( -inf, -inf )",
      "user 111": "( -inf, -inf )",
      "user 112": "( -inf, -inf )",
      "user 113": "( -inf, -inf )",
      "user 114": "( -inf, -inf )",
      "user 115": "( -inf, -inf )",
      "user 116": "( -inf, -inf )",
      "user 117": "( -inf, -inf )",
      "user 118": "( -inf, -inf )",
      "user 119": "( -inf, -inf )",
      "user 120": "( -inf, -inf )",
      "user 121": "( -inf, -inf )",
      "user 122": "( -inf, -inf )",
      "user 123": "( -inf, -inf )",
      "user 124": "( -inf, -inf )",
      "user 125": "( -inf, -inf )",
      "user 126": "( -inf, -inf )",
      "user 127": "( -inf, -inf )",
      "user 128": "( -inf, -inf )",
      "user 129": "( -inf, -inf )",
      "user 130": "( -inf, -inf )",
      "user 131": "( -inf, -inf )",
      "user 132": "( -inf, -inf )",
      "user 133": "( -inf, -inf )",
      "user 134": "( -inf, -inf )",
      "user 135": "( -inf, -inf )",
      "user 136": "( -inf, -inf )",
      "user 137": "( -inf, -inf )",
      "user 138": "( -inf, -inf )",
      "user 139": "( -inf, -inf )",
      "user 140": "( -inf, -inf )",
      "user 141": "( -inf, -inf )",
      "user 142": "( -inf, -inf )",
      "user 143": "( -inf, -inf )",
      "user 144": "( -inf, -inf )",
      "user 145": "( -inf, -inf )",
      "user 146": "( -inf, -inf )",
      "user 147": "( -inf, -inf )",
      "user 148": "( -inf, -inf )",
      "user 149": "( -inf, -inf )",
      "user 150": "( -inf, -inf )",
      "user 151": "( -inf, -inf )",
      "user 152": "( -inf, -inf )",
      "user 153": "( -inf, -inf )",
      "user 154": "( -inf, -inf )",
      "user 155": "( -inf, -inf )",
      "user 156": "( -inf, -inf )",
      "user 157": "( -inf, -inf )",
      "user 158": "( -inf, -inf )",
      "user 159": "( -inf, -inf )",
      "user 160": "( -inf, -inf )",
      "user 161": "( -inf, -inf )",
      "user 162": "( -inf, -inf )",
      "user 163": "( -inf, -inf )",
      "user 164": "( -inf, -inf )",
      "user 165": "( -inf, -inf )",
      "user 166": "( -inf, -inf )",
      "user 167": "( -inf, -inf )",
      "user 168": "( -inf, -inf )",
      "user 169": "( -inf, -inf )",
      "user 170": "( -inf, -inf )",
      "user 171": "( -inf, -inf )",
      "user 172": "( -inf, -inf )",
      "user 173": "( -inf, -inf )",
      "user 174": "( -inf, -inf )",
      "user 175": "( -inf, -inf )",
      "user 176": "( -inf, -inf )",
      "user 177": "( -inf, -inf )",
      "user 178": "( -inf, -inf )",
      "user 179": "( -inf, -inf )",
      "user 180": "( -inf, -inf )",
      "user 181": "( -inf, -inf )",
      "user 182": "( -inf, -inf )",
      "user 183": "( -inf, -inf )",
      "user 184": "( -inf, -inf )",
      "user 185": "( -inf, -inf )",
      "user 186": "( -inf, -inf )",
      "user 187": "( -inf, -inf )",
      "user 188": "( -inf, -inf )",
      "user 189": "( -inf, -inf )",
      "user 190": "( -inf, -inf )",
      "user 191": "( -inf, -inf )",
      "user 192": "( -inf, -inf )",
      "user 193": "( -inf, -inf )",
      "user 194": "( -inf, -inf )",
      "user 195": "( -inf, -inf )",
      "user 196": "( -inf, -inf )",
      "user 197": "( -inf, -inf )",
      "user 198": "( -inf, -inf )",
      "user 199": "( -inf, -inf )",
      "user 200": "( -inf, -inf )",
      "user 201": "( -inf, -inf )",
      "user 202": "( -inf, -inf )",
      "user 203": "( -inf, -inf )",
      "user 204": "( -inf, -inf )",
      "user 205": "( -inf, -inf )",
      "user 206": "( -inf, -inf )",
      "user 207": "( -inf, -inf )",
      "user 208": "( -inf, -inf )",
      "user 209": "( -inf, -inf )",
      "user 210": "( -inf, -inf )",
      "user 211": "( -inf, -inf )",
      "user 212": "( -inf, -inf )",
      "user 213": "( -inf, -inf )",
      "user 214": "( -inf, -inf )",
      "user 215": "( -inf, -inf )",
      "user 216": "( -inf, -inf )",
      "user 217": "( -inf, -inf )",
      "user 218": "( -inf, -inf )",
      "user 219": "( -inf, -inf )",
      "user 220": "( -inf, -inf )",
      "user 221": "( -inf, -inf )",
      "user 222": "( -inf, -inf )",
      "user 223": "( -inf, -inf )",
      "user 224": "( -inf, -inf )",
      "user 225": "( -inf, -inf )",
      "user 226": "( -inf, -inf )",
      "user 227": "( -inf, -inf )",
      "user 228": "( -inf, -inf )",
      "user 229": "( -inf, -inf )",
      "user 230": "( -inf, -inf )",
      "user 231": "( -inf, -inf )",
      "user 232": "( -inf, -inf )",
      "user 233": "( -inf, -inf )",
      "user 234": "( -inf, -inf )",
      "user 235": "( -inf, -inf )",
      "user 236": "( -inf, -inf )",
      "user 237": "( -inf, -inf )",
      "user 238": "( -inf, -inf )",
      "user 239": "( -inf, -inf )",
      "user 240": "( -inf, -inf )",
      "user 241": "( -inf, -inf )",
      "user 242": "( -inf, -inf )",
      "user 243": "( -inf, -inf )",
      "user 244": "( -inf, -inf )",
      "user 245": "( -inf, -inf )",
      "user 246": "( -inf, -inf )",
      "user 247": "( -inf, -inf )",
      "user 248": "( -inf, -inf )",
      "user 249": "( -inf, -inf )",
      "user 250": "( -inf, -inf )",
      "user 251": "( -inf, -inf )",
      "user 252": "( -inf, -inf )",
      "user 253": "( -inf, -inf )",
      "user 254": "( -inf, -inf )",
      "user 255": "( -inf, -inf )",
      "user 256": "( -inf, -inf )",
      "user 257": "( -inf, -inf )",
      "user 258": "( -inf, -inf )",
      "user 259": "( -inf, -inf )",
      "user 260": "( -inf, -inf )",
      "user 261": "( -inf, -inf )",
      "user 262": "( -inf, -inf )",
      "user 263": "( -inf, -inf )",
      "user 264": "( -inf, -inf )",
      "user 265": "( -inf, -inf )",
      "user 266": "( -inf, -inf )",
      "user 267": "( -inf, -inf )",
      "user 268": "( -inf, -inf )",
      "user 269": "( -inf, -inf )",
      "user 270": "( -inf, -inf )",
      "user 271": "( -inf, -inf )",
      "user 272": "( -inf, -inf )",
      "user 273": "( -inf, -inf )",
      "user 274": "( -inf, -inf )",
      "user 275": "( -inf, -inf )",
      "user 276": "( -inf, -inf )",
      "user 277": "( -inf, -inf )",
      "user 278": "( -inf, -inf )",
      "user 279": "( -inf, -inf )",
      "user 280": "( -inf, -inf )",
      "user 281": "( -inf, -inf )",
      "user 282": "( -inf, -inf )",
      "user 283": "( -inf, -inf )",
      "user 284": "( -inf, -inf )",
      "user 285": "( -inf, -inf )",
      "user 286": "( -inf, -inf )",
      "user 287": "( -inf, -inf )",
      "user 288": "( -inf, -inf )",
      "user 289": "( -inf, -inf )",
      "user 290": "( -inf, -inf )",
      "user 291": "( -inf, -inf )",
      "user 292": "( -inf, -inf )",
      "user 293": "( -inf, -inf )",
      "user 294": "( -inf, -inf )",
      "user 295": "( -inf, -inf )",
      "user 296": "( -inf, -inf )",
      "user 297": "( -inf, -inf )",
      "user 298": "( -inf, -inf )",
      "user 299": "( -inf, -inf )",
      "user 300": "( -inf, -inf )",
      "user 301": "( -inf, -inf )",
      "user 302": "( -inf, -inf )",
      "user 303": "( -inf, -inf )",
      "user 304": "( -inf, -inf )",
      "user 305": "( -inf, -inf )",
      "user 306": "( -inf, -inf )",
      "user 307": "( -inf, -inf )",
      "user 308": "( -inf, -inf )",
      "user 309": "( -inf, -inf )",
      "user 310": "( -inf, -inf )",
      "user 311": "( -inf, -inf )",
      "user 312": "( -inf, -inf )",
      "user 313": "( -inf, -inf )",
      "user 314": "( -inf, -inf )",
      "user 315": "( -inf, -inf )",
      "user 316": "( -inf, -inf )",
      "user 317": "( -inf, -inf )",
      "user 318": "( -inf, -inf )",
      "user 319": "( -inf, -inf )",
      "user 320": "( -inf, -inf )",
      "user 321": "( -inf, -inf )",
      "user 322": "( -inf, -inf )",
      "user 323": "( -inf, -inf )",
      "user 324": "( -inf, -inf )",
      "user 325": "( -inf, -inf )",
      "user 326": "( -inf, -inf )",
      "user 327": "( -inf, -inf )",
      "user 328": "( -inf, -inf )",
      "user 329": "( -inf, -inf )",
      "user 330": "( -inf, -inf )",
      "user 331": "( -inf, -inf )",
      "user 332": "( -inf, -inf )",
      "user 333": "( -inf, -inf )",
      "user 334": "( -inf, -inf )",
      "user 335": "( -inf, -inf )",
      "user 336": "( -inf, -inf )",
      "user 337": "( -inf, -inf )",
      "user 338": "( -inf, -inf )",
      "user 339": "( -inf, -inf )",
      "user 340": "( -inf, -inf )",
      "user 341": "( -inf, -inf )",
      "user 342": "( -inf, -inf )",
      "user 343": "( -inf, -inf )",
      "user 344": "( -inf, -inf )",
      "user 345": "( -inf, -inf )",
      "user 346": "( -inf, -inf )",
      "user 347": "( -inf, -inf )",
      "user 348": "( -inf, -inf )",
      "user 349": "( -inf, -inf )",
      "user 350": "( -inf, -inf )",
      "user 351": "( -inf, -inf )",
      "user 352": "( -inf, -inf )",
      "user 353": "( -inf, -inf )",
      "user 354": "( -inf, -inf )",
      "user 355": "( -inf, -inf )",
      "user 356": "( -inf, -inf )",
      "user 357": "( -inf, -inf )",
      "user 358": "( -inf, -inf )",
      "user 359": "( -inf, -inf )",
      "user 360": "( -inf, -inf )",
      "user 361": "( -inf, -inf )",
      "user 362": "( -inf, -inf )",
      "user 363": "( -inf, -inf )",
      "user 364": "( -inf, -inf )",
      "user 365": "( -inf, -inf )",
      "user 366": "( -inf, -inf )",
      "user 367": "( -inf, -inf )",
      "user 368": "( -inf, -inf )",
      "user 369": "( -inf, -inf )",
      "user 370": "( -inf, -inf )",
      "user 371": "( -inf, -inf )",
      "user 372": "( -inf, -inf )",
      "user 373": "( -inf, -inf )",
      "user 374": "( -inf, -inf )",
      "user 375": "( -inf, -inf )",
      "user 376": "( -inf, -inf )",
      "user 377": "( -inf, -inf )",
      "user 378": "( -inf, -inf )",
      "user 379": "( -inf, -inf )",
      "user 380": "( -inf, -inf )",
      "user 381": "( -inf, -inf )",
      "user 382": "( -inf, -inf )",
      "user 383": "( -inf, -inf )",
      "user 384": "( -inf, -inf )",
      "user 385": "( -inf, -inf )",
      "user 386": "( -inf, -inf )",
      "user 387": "( -inf, -inf )",
      "user 388": "( -inf, -inf )",
      "user 389": "( -inf, -inf )",
      "user 390": "( -inf, -inf )",
      "user 391": "( -inf, -inf )",
      "user 392": "( -inf, -inf )",
      "user 393": "( -inf, -inf )",
      "user 394": "( -inf, -inf )",
      "user 395": "( -inf, -inf )",
      "user 396": "( -inf, -inf )",
      "user 397": "( -inf, -inf )",
      "user 398": "( -inf, -inf )",
      "user 399": "( -inf, -inf )",
      "user 400": "( -inf, -inf )",
      "user 401": "( -inf, -inf )",
      "user 402": "( -inf, -inf )",
      "user 403": "( -inf, -inf )",
      "user 404": "( -inf, -inf )",
      "user 405": "( -inf, -inf )",
      "user 406": "( -inf, -inf )",
      "user 407": "( -inf, -inf )",
      "user 408": "( -inf, -inf )",
      "user 409": "( -inf, -inf )",
      "user 410": "( -inf, -inf )",
      "user 411": "( -inf, -inf )",
      "user 412": "( -inf, -inf )",
      "user 413": "( -inf, -inf )",
      "user 414": "( -inf, -inf )",
      "user 415": "( -inf, -inf )",
      "user 416": "( -inf, -inf )",
      "user 417": "( -inf, -inf )",
      "user 418": "( -inf, -inf )",
      "user 419": "( -inf, -inf )",
      "user 420": "( -inf, -inf )",
      "user 421": "( -inf, -inf )",
      "user 422": "( -inf, -inf )",
      "user 423": "( -inf, -inf )",
      "user 424": "( -inf, -inf )",
      "user 425": "( -inf, -inf )",
      "user 426": "( -inf, -inf )",
      "user 427": "( -inf, -inf )",
      "user 428": "( -inf, -inf )",
      "user 429": "( -inf, -inf )",
      "user 430": "( -inf, -inf )",
      "user 431": "( -inf, -inf )",
      "user 432": "( -inf, -inf )",
      "user 433": "( -inf, -inf )",
      "user 434": "( -inf, -inf )",
      "user 435": "( -inf, -inf )",
      "user 436": "( -inf, -inf )",
      "user 437": "( -inf, -inf )",
      "user 438": "( -inf, -inf )",
      "user 439": "( -inf, -inf )",
      "user 440": "( -inf, -inf )",
      "user 441": "( -inf, -inf )",
      "user 442": "( -inf, -inf )",
      "user 443": "( -inf, -inf )",
      "user 444": "( -inf, -inf )",
      "user 445": "( -inf, -inf )",
      "user 446": "( -inf, -inf )",
      "user 447": "( -inf, -inf )",
      "user 448": "( -inf, -inf )",
      "user 449": "( -inf, -inf )",
      "user 450": "( -inf, -inf )",
      "user 451": "( -inf, -inf )",
      "user 452": "( -inf, -inf )",
      "user 453": "( -inf, -inf )",
      "user 454": "( -inf, -inf )",
      "user 455": "( -inf, -inf )",
      "user 456": "( -inf, -inf )",
      "user 457": "( -inf, -inf )",
      "user 458": "( -inf, -inf )",
      "user 459": "( -inf, -inf )",
      "user 460": "( -inf, -inf )",
      "user 461": "( -inf, -inf )",
      "user 462": "( -inf, -inf )",
      "user 463": "( -inf, -inf )",
      "user 464": "( -inf, -inf )",
      "user 465": "( -inf, -inf )",
      "user 466": "( -inf, -inf )",
      "user 467": "( -inf, -inf )",
      "user 468": "( -inf, -inf )",
      "user 469": "( -inf, -inf )",
      "user 470": "( -inf, -inf )",
      "user 471": "( -inf, -inf )",
      "user 472": "( -inf, -inf )",
      "user 473": "( -inf, -inf )",
      "user 474": "( -inf, -inf )",
      "user 475": "( -inf, -inf )",
      "user 476": "( -inf, -inf )",
      "user 477": "( -inf, -inf )",
      "user 478": "( -inf, -inf )",
      "user 479": "( -inf, -inf )",
      "user 480": "( -inf, -inf )",
      "user 481": "( -inf, -inf )",
      "user 482": "( -inf, -inf )",
      "user 483": "( -inf, -inf )",
      "user 484": "( -inf, -inf )",
      "user 485": "( -inf, -inf )",
      "user 486": "( -inf, -inf )",
      "user 487": "( -inf, -inf )",
      "user 488": "( -inf, -inf )",
      "user 489": "( -inf, -inf )",
      "user 490": "( -inf, -inf )",
      "user 491": "( -inf, -inf )",
      "user 492": "( -inf, -inf )",
      "user 493": "( -inf, -inf )",
      "user 494": "( -inf, -inf )",
      "user 495": "( -inf, -inf )",
      "user 496": "( -inf, -inf )",
      "user 497": "( -inf, -inf )",
      "user 498": "( -inf, -inf )",
      "user 499": "( -inf, -inf )",
      "user 500": "( -inf, -inf )",
      "user 501": "( -inf, -inf )",
      "user 502": "( -inf, -inf )",
      "user 503": "( -inf, -inf )",
      "user 504": "( -inf, -inf )",
      "user 505": "( -inf, -inf )",
      "user 506": "( -inf, -inf )",
      "user 507": "( -inf, -inf )",
      "user 508": "( -inf, -inf )",
      "user 509": "( -inf, -inf )",
      "user 510": "( -inf, -inf )",
      "user 511": "( -inf, -inf )",
      "user 512": "( -inf, -inf )",
      "user 513": "( -inf, -inf )",
      "user 514": "( -inf, -inf )",
      "user 515": "( -inf, -inf )",
      "user 516": "( -inf, -inf )",
      "user 517": "( -inf, -inf )",
      "user 518": "( -inf, -inf )",
      "user 519": "( -inf, -inf )",
      "user 520": "( -inf, -inf )",
      "user 521": "( -inf, -inf )",
      "user 522": "( -inf, -inf )",
      "user 523": "( -inf, -inf )",
      "user 524": "( -inf, -inf )",
      "user 525": "( -inf, -inf )",
      "user 526": "( -inf, -inf )",
      "user 527": "( -inf, -inf )",
      "user 528": "( -inf, -inf )",
      "user 529": "( -inf, -inf )",
      "user 530": "( -inf, -inf )",
      "user 531": "( -inf, -inf )",
      "user 532": "( -inf, -inf )",
      "user 533": "( -inf, -inf )",
      "user 534": "( -inf, -inf )",
      "user 535": "( -inf, -inf )",
      "user 536": "( -inf, -inf )",
      "user 537": "( -inf, -inf )",
      "user 538": "( -inf, -inf )",
      "user 539": "( -inf, -inf )",
      "user 540": "( -inf, -inf )",
      "user 541": "( -inf, -inf )",
      "user 542": "( -inf, -inf )",
      "user 543": "( -inf, -inf )",
      "user 544": "( -inf, -inf )",
      "user 545": "( -inf, -inf )",
      "user 546": "( -inf, -inf )",
      "user 547": "( -inf, -inf )",
      "user 548": "( -inf, -inf )",
      "user 549": "( -inf, -inf )",
      "user 550": "( -inf, -inf )",
      "user 551": "( -inf, -inf )",
      "user 552": "( -inf, -inf )",
      "user 553": "( -inf, -inf )",
      "user 554": "( -inf, -inf )",
      "user 555": "( -inf, -inf )",
      "user 556": "( -inf, -inf )",
      "user 557": "( -inf, -inf )",
      "user 558": "( -inf, -inf )",
      "user 559": "( -inf, -inf )",
      "user 560": "( -inf, -inf )",
      "user 561": "( -inf, -inf )",
      "user 562": "( -inf, -inf )",
      "user 563": "( -inf, -inf )",
      "user 564": "( -inf, -inf )",
      "user 565": "( -inf, -inf )",
      "user 566": "( -inf, -inf )",
      "user 567": "( -inf, -inf )",
      "user 568": "( -inf, -inf )",
      "user 569": "( -inf, -inf )",
      "user 570": "( -inf, -inf )",
      "user 571": "( -inf, -inf )",
      "user 572": "( -inf, -inf )",
      "user 573": "( -inf, -inf )",
      "user 574": "( -inf, -inf )",
      "user 575": "( -inf, -inf )",
      "user 576": "( -inf, -inf )",
      "user 577": "( -inf, -inf )",
      "user 578": "( -inf, -inf )",
      "user 579": "( -inf, -inf )",
      "user 580": "( -inf, -inf )",
      "user 581": "( -inf, -inf )",
      "user 582": "( -inf, -inf )",
      "user 583": "( -inf, -inf )",
      "user 584": "( -inf, -inf )",
      "user 585": "( -inf, -inf )",
      "user 586": "( -inf, -inf )",
      "user 587": "( -inf, -inf )",
      "user 588": "( -inf, -inf )",
      "user 589": "( -inf, -inf )",
      "user 590": "( -inf, -inf )",
      "user 591": "( -inf, -inf )",
      "user 592": "( -inf, -inf )",
      "user 593": "( -inf, -inf )",
      "user 594": "( -inf, -inf )",
      "user 595": "( -inf, -inf )",
      "user 596": "( -inf, -inf )",
      "user 597": "( -inf, -inf )",
      "user 598": "( -inf, -inf )",
      "user 599": "( -inf, -inf )",
      "user 600": "( -inf, -inf )",
      "user 601": "( -inf, -inf )",
      "user 602": "( -inf, -inf )",
      "user 603": "( -inf, -inf )",
      "user 604": "( -inf, -inf )",
      "user 605": "( -inf, -inf )",
      "user 606": "( -inf, -inf )",
      "user 607": "( -inf, -inf )",
      "user 608": "( -inf, -inf )",
      "user 609": "( -inf, -inf )",
      "user 610": "( -inf, -inf )",
      "user 611": "( -inf, -inf )",
      "user 612": "( -inf, -inf )",
      "user 613": "( -inf, -inf )",
      "user 614": "( -inf, -inf )",
      "user 615": "( -inf, -inf )",
      "user 616": "( -inf, -inf )",
      "user 617": "( -inf, -inf )",
      "user 618": "( -inf, -inf )",
      "user 619": "( -inf, -inf )",
      "user 620": "( -inf, -inf )",
      "user 621": "( -inf, -inf )",
      "user 622": "( -inf, -inf )",
      "user 623": "( -inf, -inf )",
      "user 624": "( -inf, -inf )",
      "user 625": "( -inf, -inf )",
      "user 626": "( -inf, -inf )",
      "user 627": "( -inf, -inf )",
      "user 628": "( -inf, -inf )",
      "user 629": "( -inf, -inf )",
      "user 630": "( -inf, -inf )",
      "user 631": "( -inf, -inf )",
      "user 632": "( -inf, -inf )",
      "user 633": "( -inf, -inf )",
      "user 634": "( -inf, -inf )",
      "user 635": "( -inf, -inf )",
      "user 636": "( -inf, -inf )",
      "user 637": "( -inf, -inf )",
      "user 638": "( -inf, -inf )",
      "user 639": "( -inf, -inf )",
      "user 640": "( -inf, -inf )",
      "user 641": "( -inf, -inf )",
      "user 642": "( -inf, -inf )",
      "user 643": "( -inf, -inf )",
      "user 644": "( -inf, -inf )",
      "user 645": "( -inf, -inf )",
      "user 646": "( -inf, -inf )",
      "user 647": "( -inf, -inf )",
      "user 648": "( -inf, -inf )",
      "user 649": "( -inf, -inf )",
      "user 650": "( -inf, -inf )",
      "user 651": "( -inf, -inf )",
      "user 652": "( -inf, -inf )",
      "user 653": "( -inf, -inf )",
      "user 654": "( -inf, -inf )",
      "user 655": "( -inf, -inf )",
      "user 656": "( -inf, -inf )",
      "user 657": "( -inf, -inf )",
      "user 658": "( -inf, -inf )",
      "user 659": "( -inf, -inf )",
      "user 660": "( -inf, -inf )",
      "user 661": "( -inf, -inf )",
      "user 662": "( -inf, -inf )",
      "user 663": "( -inf, -inf )",
      "user 664": "( -inf, -inf )",
      "user 665": "( -inf, -inf )",
      "user 666": "( -inf, -inf )",
      "user 667": "( -inf, -inf )",
      "user 668": "( -inf, -inf )",
      "user 669": "( -inf, -inf )",
      "user 670": "( -inf, -inf )",
      "user 671": "( -inf, -inf )",
      "user 672": "( -inf, -inf )",
      "user 673": "( -inf, -inf )",
      "user 674": "( -inf, -inf )",
      "user 675": "( -inf, -inf )",
      "user 676": "( -inf, -inf )",
      "user 677": "( -inf, -inf )",
      "user 678": "( -inf, -inf )",
      "user 679": "( -inf, -inf )",
      "user 680": "( -inf, -inf )",
      "user 681": "( -inf, -inf )",
      "user 682": "( -inf, -inf )",
      "user 683": "( -inf, -inf )",
      "user 684": "( -inf, -inf )",
      "user 685": "( -inf, -inf )",
      "user 686": "( -inf, -inf )",
      "user 687": "( -inf, -inf )",
      "user 688": "( -inf, -inf )",
      "user 689": "( -inf, -inf )",
      "user 690": "( -inf, -inf )",
      "user 691": "( -inf, -inf )",
      "user 692": "( -inf, -inf )",
      "user 693": "( -inf, -inf )",
      "user 694": "( -inf, -inf )",
      "user 695": "( -inf, -inf )",
      "user 696": "( -inf, -inf )",
      "user 697": "( -inf, -inf )",
      "user 698": "( -inf, -inf )",
      "user 699": "( -inf, -inf )",
      "user 700": "( -inf, -inf )",
      "user 701": "( -inf, -inf )",
      "user 702": "( -inf, -inf )",
      "user 703": "( -inf, -inf )",
      "user 704": "( -inf, -inf )",
      "user 705": "( -inf, -inf )",
      "user 706": "( -inf, -inf )",
      "user 707": "( -inf, -inf )",
      "user 708": "( -inf, -inf )",
      "user 709": "( -inf, -inf )",
      "user 710": "( -inf, -inf )",
      "user 711": "( -inf, -inf )",
      "user 712": "( -inf, -inf )",
      "user 713": "( -inf, -inf )",
      "user 714": "( -inf, -inf )",
      "user 715": "( -inf, -inf )",
      "user 716": "( -inf, -inf )",
      "user 717": "( -inf, -inf )",
      "user 718": "( -inf, -inf )",
      "user 719": "( -inf, -inf )",
      "user 720": "( -inf, -inf )",
      "user 721": "( -inf, -inf )",
      "user 722": "( -inf, -inf )",
      "user 723": "( -inf, -inf )",
      "user 724": "( -inf, -inf )",
      "user 725": "( -inf, -inf )",
      "user 726": "( -inf, -inf )",
      "user 727": "( -inf, -inf )",
      "user 728": "( -inf, -inf )",
      "user 729": "( -inf, -inf )",
      "user 730": "( -inf, -inf )",
      "user 731": "( -inf, -inf )",
      "user 732": "( -inf, -inf )",
      "user 733": "( -inf, -inf )",
      "user 734": "( -inf, -inf )",
      "user 735": "( -inf, -inf )",
      "user 736": "( -inf, -inf )",
      "user 737": "( -inf, -inf )",
      "user 738": "( -inf, -inf )",
      "user 739": "( -inf, -inf )",
      "user 740": "( -inf, -inf )",
      "user 741": "( -inf, -inf )",
      "user 742": "( -inf, -inf )",
      "user 743": "( -inf, -inf )",
      "user 744": "( -inf, -inf )",
      "user 745": "( -inf, -inf )",
      "user 746": "( -inf, -inf )",
      "user 747": "( -inf, -inf )",
      "user 748": "( -inf, -inf )",
      "user 749": "( -inf, -inf )",
      "user 750": "( -inf, -inf )",
      "user 751": "( -inf, -inf )",
      "user 752": "( -inf, -inf )",
      "user 753": "( -inf, -inf )",
      "user 754": "( -inf, -inf )",
      "user 755": "( -inf, -inf )",
      "user 756": "( -inf, -inf )",
      "user 757": "( -inf, -inf )",
      "user 758": "( -inf, -inf )",
      "user 759": "( -inf, -inf )",
      "user 760": "( -inf, -inf )",
      "user 761": "( -inf, -inf )",
      "user 762": "( -inf, -inf )",
      "user 763": "( -inf, -inf )",
      "user 764": "( -inf, -inf )",
      "user 765": "( -inf, -inf )",
      "user 766": "( -inf, -inf )",
      "user 767": "( 81.75684822116419, -inf )",
      "user 768": "( -inf, -inf )",
      "user 769": "( -inf, -inf )",
      "user 770": "( -inf, -inf )",
      "user 771": "( -inf, -inf )",
      "user 772": "( -inf, -inf )",
      "user 773": "( -inf, 80.78486858806929 )",
      "user 774": "( -inf, -inf )",
      "user 775": "( -inf, -inf )",
      "user 776": "( -inf, -inf )",
      "user 777": "( -inf, -inf )",
      "user 778": "( -inf, -inf )",
      "user 779": "( -inf, -inf )",
      "user 780": "( -inf, -inf )",
      "user 781": "( -inf, -inf )",
      "user 782": "( -inf, -inf )",
      "user 783": "( -inf, -inf )",
      "user 784": "( -inf, -inf )",
      "user 785": "( -inf, -inf )",
      "user 786": "( -inf, -inf )",
      "user 787": "( -inf, -inf )",
      "user 788": "( -inf, -inf )",
      "user 789": "( -inf, -inf )",
      "user 790": "( -inf, 80.5209019480958 )",
      "user 791": "( -inf, -inf )",
      "user 792": "( -inf, -inf )",
      "user 793": "( -inf, -inf )",
      "user 794": "( -inf, -inf )",
      "user 795": "( -inf, -inf )",
      "user 796": "( -inf, -inf )",
      "user 797": "( -inf, -inf )",
      "user 798": "( -inf, -inf )",
      "user 799": "( -inf, -inf )",
      "user 800": "( -inf, -inf )",
      "user 801": "( -inf, -inf )",
      "user 802": "( -inf, -inf )",
      "user 803": "( -inf, -inf )",
      "user 804": "( -inf, -inf )",
      "user 805": "( -inf, -inf )",
      "user 806": "( -inf, -inf )",
      "user 807": "( -inf, -inf )",
      "user 808": "( -inf, -inf )",
      "user 809": "( -inf, -inf )",
      "user 810": "( -inf, -inf )",
      "user 811": "( -inf, -inf )",
      "user 812": "( -inf, -inf )",
      "user 813": "( -inf, -inf )",
      "user 814": "( -inf, -inf )",
      "user 815": "( -inf, -inf )",
      "user 816": "( -inf, -inf )",
      "user 817": "( -inf, -inf )",
      "user 818": "( -inf, -inf )",
      "user 819": "( -inf, -inf )",
      "user 820": "( -inf, -inf )",
      "user 821": "( -inf, -inf )",
      "user 822": "( -inf, -inf )",
      "user 823": "( -inf, -inf )",
      "user 824": "( -inf, -inf )",
      "user 825": "( -inf, -inf )",
      "user 826": "( -inf, -inf )",
      "user 827": "( -inf, -inf )",
      "user 828": "( -inf, -inf )",
      "user 829": "( -inf, -inf )",
      "user 830": "( -inf, -inf )",
      "user 831": "( -inf, -inf )",
      "user 832": "( -inf, -inf )",
      "user 833": "( -inf, -inf )",
      "user 834": "( -inf, -inf )",
      "user 835": "( -inf, -inf )",
      "user 836": "( -inf, -inf )",
      "user 837": "( -inf, -inf )",
      "user 838": "( -inf, -inf )",
      "user 839": "( -inf, -inf )",
      "user 840": "( -inf, -inf )",
      "user 841": "( -inf, -inf )",
      "user 842": "( -inf, -inf )",
      "user 843": "( -inf, -inf )",
      "user 844": "( -inf, -inf )",
      "user 845": "( -inf, -inf )",
      "user 846": "( -inf, -inf )",
      "user 847": "( -inf, -inf )",
      "user 848": "( -inf, -inf )",
      "user 849": "( -inf, -inf )",
      "user 850": "( -inf, -inf )",
      "user 851": "( -inf, -inf )",
      "user 852": "( -inf, -inf )",
      "user 853": "( -inf, -inf )",
      "user 854": "( -inf, -inf )",
      "user 855": "( -inf, -inf )",
      "user 856": "( -inf, -inf )",
      "user 857": "( 81.05699887843211, -inf )",
      "user 858": "( -inf, -inf )",
      "user 859": "( -inf, -inf )",
      "user 860": "( -inf, -inf )",
      "user 861": "( -inf, -inf )",
      "user 862": "( -inf, -inf )",
      "user 863": "( -inf, -inf )",
      "user 864": "( -inf, -inf )",
      "user 865": "( -inf, -inf )",
      "user 866": "( -inf, -inf )",
      "user 867": "( -inf, -inf )",
      "user 868": "( -inf, -inf )",
      "user 869": "( -inf, -inf )",
      "user 870": "( -inf, -inf )",
      "user 871": "( -inf, -inf )",
      "user 872": "( -inf, -inf )",
      "user 873": "( -inf, -inf )",
      "user 874": "( -inf, -inf )",
      "user 875": "( -inf, -inf )",
      "user 876": "( -inf, -inf )",
      "user 877": "( -inf, -inf )",
      "user 878": "( -inf, -inf )",
      "user 879": "( 81.3568699258119, -inf )",
      "user 880": "( -inf, -inf )",
      "user 881": "( -inf, -inf )",
      "user 882": "( -inf, -inf )",
      "user 883": "( -inf, -inf )",
      "user 884": "( -inf, -inf )",
      "user 885": "( -inf, -inf )",
      "user 886": "( -inf, -inf )",
      "user 887": "( -inf, -inf )",
      "user 888": "( -inf, -inf )",
      "user 889": "( -inf, -inf )",
      "user 890": "( -inf, -inf )",
      "user 891": "( -inf, -inf )",
      "user 892": "( -inf, -inf )",
      "user 893": "( -inf, -inf )",
      "user 894": "( -inf, -inf )",
      "user 895": "( -inf, -inf )",
      "user 896": "( -inf, -inf )",
      "user 897": "( -inf, -inf )",
      "user 898": "( -inf, -inf )",
      "user 899": "( -inf, -inf )",
      "user 900": "( -inf, -inf )",
      "user 901": "( -inf, -inf )",
      "user 902": "( -inf, -inf )",
      "user 903": "( -inf, -inf )",
      "user 904": "( -inf, -inf )",
      "user 905": "( -inf, -inf )",
      "user 906": "( -inf, -inf )",
      "user 907": "( -inf, -inf )",
      "user 908": "( -inf, -inf )",
      "user 909": "( -inf, -inf )",
      "user 910": "( -inf, -inf )",
      "user 911": "( -inf, -inf )",
      "user 912": "( -inf, -inf )",
      "user 913": "( -inf, -inf )",
      "user 914": "( -inf, -inf )",
      "user 915": "( -inf, -inf )",
      "user 916": "( -inf, -inf )",
      "user 917": "( -inf, -inf )",
      "user 918": "( 80.86942603782616, -inf )",
      "user 919": "( -inf, -inf )",
      "user 920": "( -inf, -inf )",
      "user 921": "( -inf, -inf )",
      "user 922": "( -inf, -inf )",
      "user 923": "( -inf, -inf )",
      "user 924": "( -inf, -inf )",
      "user 925": "( -inf, -inf )",
      "user 926": "( -inf, -inf )",
      "user 927": "( -inf, -inf )",
      "user 928": "( -inf, -inf )",
      "user 929": "( -inf, -inf )",
      "user 930": "( -inf, -inf )",
      "user 931": "( -inf, -inf )",
      "user 932": "( -inf, -inf )",
      "user 933": "( -inf, -inf )",
      "user 934": "( -inf, -inf )",
      "user 935": "( -inf, -inf )",
      "user 936": "( -inf, -inf )",
      "user 937": "( -inf, -inf )",
      "user 938": "( -inf, -inf )",
      "user 939": "( -inf, -inf )",
      "user 940": "( -inf, -inf )",
      "user 941": "( -inf, -inf )",
      "user 942": "( -inf, -inf )",
      "user 943": "( -inf, -inf )",
      "user 944": "( -inf, -inf )",
      "user 945": "( -inf, -inf )",
      "user 946": "( -inf, -inf )",
      "user 947": "( -inf, -inf )",
      "user 948": "( -inf, -inf )",
      "user 949": "( -inf, -inf )",
      "user 950": "( -inf, -inf )",
      "user 951": "( -inf, -inf )",
      "user 952": "( -inf, -inf )",
      "user 953": "( -inf, -inf )",
      "user 954": "( -inf, -inf )",
      "user 955": "( -inf, -inf )",
      "user 956": "( -inf, -inf )",
      "user 957": "( -inf, -inf )",
      "user 958": "( -inf, 80.90802071628282 )",
      "user 959": "( -inf, -inf )",
      "user 960": "( -inf, -inf )",
      "user 961": "( -inf, -inf )",
      "user 962": "( -inf, -inf )",
      "user 963": "( 81.0259063255463, -inf )",
      "user 964": "( -inf, -inf )",
      "user 965": "( -inf, -inf )",
      "user 966": "( -inf, -inf )",
      "user 967": "( -inf, -inf )",
      "user 968": "( -inf, -inf )",
      "user 969": "( -inf, -inf )",
      "user 970": "( -inf, -inf )",
      "user 971": "( -inf, -inf )",
      "user 972": "( -inf, -inf )",
      "user 973": "( -inf, -inf )",
      "user 974": "( -inf, -inf )",
      "user 975": "( -inf, -inf )",
      "user 976": "( -inf, -inf )",
      "user 977": "( -inf, -inf )",
      "user 978": "( -inf, -inf )",
      "user 979": "( -inf, -inf )",
      "user 980": "( -inf, -inf )",
      "user 981": "( -inf, -inf )",
      "user 982": "( -inf, 81.09730492011852 )",
      "user 983": "( -inf, -inf )",
      "user 984": "( -inf, -inf )",
      "user 985": "( -inf, -inf )",
      "user 986": "( -inf, -inf )",
      "user 987": "( -inf, -inf )",
      "user 988": "( -inf, -inf )",
      "user 989": "( -inf, -inf )",
      "user 990": "( -inf, -inf )",
      "user 991": "( -inf, -inf )",
      "user 992": "( -inf, -inf )",
      "user 993": "( -inf, -inf )",
      "user 994": "( -inf, -inf )",
      "user 995": "( -inf, -inf )",
      "user 996": "( -inf, -inf )",
      "user 997": "( -inf, -inf )",
      "user 998": "( -inf, -inf )",
      "user 999": "( -inf, -inf )",
      "user 1000": "( -inf, -inf )",
      "user 1001": "( -inf, -inf )",
      "user 1002": "( -inf, -inf )",
      "user 1003": "( -inf, -inf )",
      "user 1004": "( -inf, -inf )",
      "user 1005": "( -inf, -inf )",
      "user 1006": "( -inf, -inf )",
      "user 1007": "( -inf, -inf )",
      "user 1008": "( -inf, -inf )",
      "user 1009": "( -inf, -inf )",
      "user 1010": "( -inf, -inf )",
      "user 1011": "( -inf, -inf )",
      "user 1012": "( -inf, -inf )",
      "user 1013": "( -inf, -inf )",
      "user 1014": "( -inf, -inf )",
      "user 1015": "( -inf, -inf )",
      "user 1016": "( -inf, -inf )",
      "user 1017": "( -inf, -inf )",
      "user 1018": "( -inf, -inf )",
      "user 1019": "( -inf, 81.59241067392256 )",
      "user 1020": "( -inf, -inf )",
      "user 1021": "( -inf, -inf )",
      "user 1022": "( -inf, -inf )",
      "user 1023": "( -inf, -inf )",
      "user 1024": "( -inf, -inf )",
      "user 1025": "( -inf, -inf )",
      "user 1026": "( -inf, -inf )",
      "user 1027": "( -inf, -inf )",
      "user 1028": "( -inf, -inf )",
      "user 1029": "( -inf, -inf )",
      "user 1030": "( -inf, -inf )",
      "user 1031": "( -inf, -inf )",
      "user 1032": "( -inf, -inf )",
      "user 1033": "( -inf, -inf )",
      "user 1034": "( -inf, -inf )",
      "user 1035": "( -inf, -inf )",
      "user 1036": "( -inf, -inf )",
      "user 1037": "( -inf, -inf )",
      "user 1038": "( -inf, -inf )",
      "user 1039": "( -inf, -inf )",
      "user 1040": "( -inf, -inf )",
      "user 1041": "( -inf, -inf )",
      "user 1042": "( -inf, -inf )",
      "user 1043": "( -inf, -inf )",
      "user 1044": "( -inf, -inf )",
      "user 1045": "( -inf, -inf )",
      "user 1046": "( -inf, -inf )",
      "user 1047": "( -inf, -inf )",
      "user 1048": "( -inf, -inf )",
      "user 1049": "( -inf, -inf )"
    },
    "state": {
      "drone 0": "( 0, 0, 30 )",
      "drone 1": "( 99, 99, 30 )"
    },
    "action": "south",
    "reward": {
      "0": 5,
      "1": 5,
      "total": 10
    }
  }
}